Reading Data
…
New names:
Rows: 9471 Columns: 18
-- Column specification
-------------------------------------------------------- Delimiter: "," chr
(2): Date, Time dbl (14): ...1, CO(GT), PT08.S1(CO), NMHC(GT), C6H6(GT),
PT08.S2(NMHC), NOx(... lgl (2): ...17, ...18
i Use `spec()` to retrieve the full column specification for this data. i
Specify the column types or set `show_col_types = FALSE` to quiet this message.
* `` -> `...1`
* `...16` -> `...17`
* `...17` -> `...18`

air_quality_data

# A tibble: 9,471 x 18
    ...1 Date       Time     `CO(GT)` `PT08.S1(CO)` `NMHC(GT)` `C6H6(GT)`
   <dbl> <chr>      <chr>       <dbl>         <dbl>      <dbl>      <dbl>
 1     1 10/03/2004 18.00.00      2.6          1360        150       11.9
 2     2 10/03/2004 19.00.00      2            1292        112        9.4
 3     3 10/03/2004 20.00.00      2.2          1402         88        9  
 4     4 10/03/2004 21.00.00      2.2          1376         80        9.2
 5     5 10/03/2004 22.00.00      1.6          1272         51        6.5
 6     6 10/03/2004 23.00.00      1.2          1197         38        4.7
 7     7 11/03/2004 00.00.00      1.2          1185         31        3.6
 8     8 11/03/2004 01.00.00      1            1136         31        3.3
 9     9 11/03/2004 02.00.00      0.9          1094         24        2.3
10    10 11/03/2004 03.00.00      0.6          1010         19        1.7
# i 9,461 more rows
# i 11 more variables: `PT08.S2(NMHC)` <dbl>, `NOx(GT)` <dbl>,
#   `PT08.S3(NOx)` <dbl>, `NO2(GT)` <dbl>, `PT08.S4(NO2)` <dbl>,
#   `PT08.S5(O3)` <dbl>, T <dbl>, RH <dbl>, AH <dbl>, ...17 <lgl>, ...18 <lgl>
…
